module Revised_hello_world

go 1.17

require (
	golang.org/x/mobile v0.0.0-20220112015953-858099ff7816 // indirect
	golang.org/x/mod v0.4.2 // indirect
	golang.org/x/sys v0.0.0-20210809222454-d867a43fc93e // indirect
	golang.org/x/tools v0.1.8-0.20211022200916-316ba0b74098 // indirect
	golang.org/x/xerrors v0.0.0-20200804184101-5ec99f83aff1 // indirect
)
